Reproducible Research - Course project 1
…
## 
## Attaching package: 'dplyr'

## The following objects are masked from 'package:stats':
## 
##     filter, lag

## The following objects are masked from 'package:base':
## 
##     intersect, setdiff, setequal, union

activity %>% group_by(date) %>% summarize(sum(steps, na.rm=TRUE))

## # A tibble: 61 × 2
##    date       `sum(steps, na.rm = TRUE)`
##    <chr>                           <dbl>
##  1 2012-10-01                          0
##  2 2012-10-02                        126
##  3 2012-10-03                      11352
##  4 2012-10-04                      12116
##  5 2012-10-05                      13294
##  6 2012-10-06                      15420
##  7 2012-10-07                      11015
##  8 2012-10-08                          0
##  9 2012-10-09                      12811
## 10 2012-10-10                       9900
## # ℹ 51 more rows
…
## [1] 10395

The mean of the total number of steps taken per day is ‘r
mean(step_day)’ The median of the total number of steps taken per day is
‘r median(step_day)’

What is the average daily activity pattern?

Make a time series plot of the 5-minute interval and the average
number of steps taken, averaged across all days

activity %>% group_by(interval) %>% summarize(mean(steps, na.rm=TRUE))

## # A tibble: 288 × 2
##    interval `mean(steps, na.rm = TRUE)`
##       <int>                       <dbl>
##  1        0                      1.72  
##  2        5                      0.340 
##  3       10                      0.132 
##  4       15                      0.151 
##  5       20                      0.0755
##  6       25                      2.09  
##  7       30                      0.528 
##  8       35                      0.868 
##  9       40                      0     
## 10       45                      1.47  
## # ℹ 278 more rows
…
table(is.na(activity_new$steps))

## 
## FALSE 
## 17568

Make a histogram of the total number of steps taken each day and
calculate and report the mean and median total numer of steps taken per
day. Do these values differ from the estimates from the first part of
the assignment? What is the impact of imputing missing data on the
estimates of the total daily number of steps?

activity_new %>% group_by(date) %>% summarize(sum(steps))

## # A tibble: 61 × 2
##    date       `sum(steps)`
##    <chr>             <dbl>
##  1 2012-10-01       10766.
##  2 2012-10-02         126 
##  3 2012-10-03       11352 
##  4 2012-10-04       12116 
##  5 2012-10-05       13294 
##  6 2012-10-06       15420 
##  7 2012-10-07       11015 
##  8 2012-10-08       10766.
##  9 2012-10-09       12811 
## 10 2012-10-10        9900 
## # ℹ 51 more rows
…
activity_new$weekday <- weekdays(activity_new$date)

activity_new %>% mutate(weekday2 = case_when(weekday==c("maandag", "dinsdag", "woensdag", "donderdag", "vrijdag")~'weekday', weekday==c("zaterdag", "zondag")~'weekend'))

## Warning: There were 576 warnings in `mutate()`.
## The first warning was:
## ℹ In argument: `weekday2 = case_when(...)`.
## ℹ In group 1: `interval = 0`.
## Caused by warning in `weekday == c("maandag", "dinsdag", "woensdag", "donderdag", "vrijdag")`:
## ! longer object length is not a multiple of shorter object length
## ℹ Run `dplyr::last_dplyr_warnings()` to see the 575 remaining warnings.

## # A tibble: 17,568 × 5
## # Groups:   interval [288]
##     steps date       interval weekday weekday2
##     <dbl> <date>        <int> <chr>   <chr>   
##  1 1.72   2012-10-01        0 maandag weekday 
##  2 0.340  2012-10-01        5 maandag weekday 
##  3 0.132  2012-10-01       10 maandag weekday 
##  4 0.151  2012-10-01       15 maandag weekday 
##  5 0.0755 2012-10-01       20 maandag weekday 
##  6 2.09   2012-10-01       25 maandag weekday 
##  7 0.528  2012-10-01       30 maandag weekday 
##  8 0.868  2012-10-01       35 maandag weekday 
##  9 0      2012-10-01       40 maandag weekday 
## 10 1.47   2012-10-01       45 maandag weekday 
## # ℹ 17,558 more rows
…
Make a panel plot containing a time series plot of the 5-minute
interval and average number of steps taken, averaged accross all weekday
or weekend days.

activity_new2 %>% group_by(interval, weekday2) %>% summarize(mean(steps))

## `summarise()` has grouped output by 'interval'. You can override using the
## `.groups` argument.

## # A tibble: 864 × 3
## # Groups:   interval [288]
##    interval weekday2 `mean(steps)`
##       <int> <chr>            <dbl>
##  1        0 weekday         5.04  
##  2        0 weekend         0.215 
##  3        0 <NA>            1.22  
##  4        5 weekday         0.0679
##  5        5 weekend         0.0425
##  6        5 <NA>            0.458 
##  7       10 weekday         0.0264
##  8       10 weekend         0.0165
##  9       10 <NA>            0.178 
## 10       15 weekday         0.0302
## # ℹ 854 more rows
…
